{
    "COMSOL_PATH": "C:\\Program Files\\COMSOL\\COMSOL54\\Multiphysics",
    "JDK_PATH": "C:\\Program Files\\Java\\jdk1.8.0_221\\bin",
    "PROJECT_PATH": "C:\\Users\\Box Sync\\bme_504\\repo\\checkpoints\\checkpoint3"
}